…
    ## Saving 7 x 5 in image

\#\#plot importance and output csv w importance over one

``` r
load("output_name.Rdata")
label = "AA_30_negative"
output_name = paste0(output_name, label)

file_in = paste0(output_name,".csv")
file_one = paste0(output_name, "importance_over_one", ".csv")
source("plot_importance_one.R")
```

    ## # A tibble: 36 x 2
    ##    var                 mean_importance
    ##    <fct>                         <dbl>
    ##  1 ClassActinopterygii          0.426 
    ##  2 ClassAves                    0.903 
    ##  3 ClassMammalia                0.202 
    ##  4 ClassReptilia                0.869 
    ##  5 ForStrat.ground              1.28  
    ##  6 ForStrat.understory          1.64  
    ##  7 ForStrat.arboreal            1.01  
    ##  8 ForStrat.aerial              0.0844
    ##  9 ForStrat.marine              7.68  
    ## 10 Activity.Nocturnal           0.387 
    ## # … with 26 more rows
…
    ## Saving 7 x 5 in image

\#\#plot importance and output csv w importance over one w/ haddock

``` r
file_in = paste0(output_name,".csv")
file_one = paste0(output_name, "importance_over_one", ".csv")
source("plot_importance_one.R")
```

    ## # A tibble: 37 x 2
    ##    var                 mean_importance
    ##    <fct>                         <dbl>
    ##  1 ClassActinopterygii           0.249
    ##  2 ClassAves                     0.971
    ##  3 ClassMammalia                 0.151
    ##  4 ClassReptilia                 0.743
    ##  5 haddock_score_mean           12.5  
    ##  6 ForStrat.ground               1.05 
    ##  7 ForStrat.understory           1.03 
    ##  8 ForStrat.arboreal             0.540
    ##  9 ForStrat.aerial               0.132
    ## 10 ForStrat.marine               7.83 
    ## # … with 27 more rows
…
    ## Saving 7 x 5 in image

\#\#plot importance – AA 30 haddock and get variables w importance over
one

``` r
source("plot_importance.R")
```

    ## # A tibble: 21 x 2
    ##    var                     mean_importance
    ##    <fct>                             <dbl>
    ##  1 haddock_score_mean                12.6 
    ##  2 ForStrat.ground                    1.32
    ##  3 ForStrat.understory                1.32
    ##  4 ForStrat.marine                    8.06
    ##  5 Activity.Nocturnal                 1.42
    ##  6 Activity.Crepuscular               1.85
    ##  7 Activity.Diurnal                   2.35
    ##  8 female_maturity_d                  4.27
    ##  9 development_d                      3.23
    ## 10 log_litterclutch_size_n           14.0 
    ## # … with 11 more rows
…
